…
    ## Calculating cluster 10

    ## Calculating cluster 11

    ## Calculating cluster 12

    ## Calculating cluster 13

    ## Calculating cluster 14

    ## Calculating cluster 15

    pbmc.markers_filtered %>% group_by(cluster) %>% top_n(n = 2, wt = avg_logFC)

    ## # A tibble: 32 x 7
    ## # Groups:   cluster [16]
    ##    p_val avg_logFC pct.1 pct.2 p_val_adj cluster gene  
    ##    <dbl>     <dbl> <dbl> <dbl>     <dbl> <fct>   <chr> 
    ##  1     0     1.33  0.914 0.307         0 0       IL7R  
    ##  2     0     1.13  0.943 0.348         0 0       IL32  
    ##  3     0     2.38  1     0.646         0 1       S100A9
    ##  4     0     2.36  1     0.526         0 1       S100A8
    ##  5     0     0.966 0.889 0.331         0 2       TCF7  
    ##  6     0     0.899 0.67  0.142         0 2       CCR7  
    ##  7     0     2.84  1     0.121         0 3       IGHM  
    ##  8     0     2.50  0.942 0.03          0 3       TCL1A 
    ##  9     0     1.31  0.995 0.283         0 4       CPVL  
    ## 10     0     1.31  0.982 0.212         0 4       LGALS2
    ## # … with 22 more rows
…
